2020-08-17 18:03:02 Get ini from server by ftp fail!
2020-08-18 09:39:25 Get ini from server by ftp fail!
2020-08-18 13:25:53 Get ini from server by ftp fail!
2020-08-18 13:55:13 Get ini from server by ftp fail!
2020-08-24 19:14:50 Get ini from server by ftp fail!
2020-08-26 12:54:23 Get ini from server by ftp fail!
2020-08-27 18:18:08 Get ini from server by ftp fail!
2020-08-28 13:24:28 Get ini from server by ftp fail!
